<?xml version="1.0" standalone="no"?>
<!DOCTYPE svg PUBLIC "-//W3C//DTD SVG 20010904//EN"
 "http://www.w3.org/TR/2001/REC-SVG-20010904/DTD/svg10.dtd">
<svg version="1.0" xmlns="http://www.w3.org/2000/svg"
 width="16.000000pt" height="16.000000pt" viewBox="0 0 16.000000 16.000000"
 preserveAspectRatio="xMidYMid meet">
<metadata>
Created by potrace 1.11, written by Peter Selinger 2001-2013
</metadata>
<g transform="translate(0.000000,16.000000) scale(0.006154,-0.006154)"
fill="#000000" stroke="none">
<path d="M1793 2466 c-278 -112 -565 -388 -782 -753 -109 -184 -123 -217 -115
-275 l7 -51 -23 16 c-31 21 -50 6 -50 -39 0 -58 -28 -227 -50 -296 -11 -36
-30 -77 -41 -92 -19 -24 -21 -36 -16 -94 5 -59 44 -237 63 -287 6 -15 4 -16
-15 -5 -53 28 -33 -38 28 -90 l46 -40 12 168 c24 350 93 627 222 898 51 106
118 225 146 259 16 18 16 17 0 -9 -68 -114 -94 -162 -136 -251 -93 -198 -155
-409 -184 -628 -28 -216 -15 -547 29 -727 l14 -55 1 109 1 109 100 94 c102 97
147 149 136 160 -3 4 -20 -4 -37 -16 -17 -13 -32 -21 -34 -19 -2 1 35 44 82
93 87 91 140 161 131 171 -3 3 -42 -22 -87 -54 -78 -55 -153 -103 -140 -88 3
3 55 43 114 89 l109 82 43 104 c44 106 156 422 151 427 -2 1 -54 -13 -117 -32
-124 -38 -156 -40 -64 -5 32 12 86 38 120 57 55 31 63 39 68 72 6 37 71 368
80 409 l5 21 -51 -19 c-28 -11 -53 -18 -55 -16 -3 2 19 13 48 24 51 19 54 23
77 84 13 35 76 167 139 292 63 125 113 230 110 232 -2 2 -40 -11 -85 -29z
m-453 -530 c0 -2 -8 -10 -17 -17 -16 -13 -17 -12 -4 4 13 16 21 21 21 13z
m-50 -66 c-12 -16 -24 -30 -26 -30 -3 0 4 14 16 30 12 17 24 30 26 30 3 0 -4
-13 -16 -30z"/>
</g>
</svg>
